...............
----------------------------------------------------------------------
Ran 15 tests in 0.296s

OK
Name             Stmts   Miss Branch BrPart  Cover   Missing
------------------------------------------------------------
Collatz.py          74      3     44      2    94%   80->78, 84-86
TestCollatz.py      68      0      2      0   100%
------------------------------------------------------------
TOTAL              142      3     46      2    96%
