1 10 20
100 200 125
201 210 89
900 1000 174
1 1 1
1 999999 525
999999 1 525
999999 999999 259
6172 10970 260
17647 14283 279
18 312 128
3 14997 276
16 19 21
3 136 122
52 1 112
3189 5 217
6 54 113
1080 174 179
35316 149 311
1816 26347 282
143851 2 375
1 15 20
338892 10 443
22089 2244 279
1509 6989 262
20 375670 443
242 354329 443
18640 29278 308
117467 12661 354
2767 153996 375
722762 68 509
3 17935 279
3270 74 217
1148 4320 238
1567 23878 282
2 15307 276
695 722 171
478 2 144
3 30 112
209 5 125
135 34 122
47440 753051 509
13955 43602 324
1061 38 179
1360 506059 449
449 115 144
13673 12410 276
93587 92614 315
72855 74921 325
99217 97315 328
45906 45541 239
73586 74062 294
2831 3894 238
26951 26197 308
11113 11270 237
98051 97178 297
17222 15569 266
27555 27684 228
79233 79959 307
81316 80871 320
12127 11150 250
48482 47249 314
24562 23957 251
55735 57429 322
2920 3711 238
3712 6171 262
130 171 125
2464 2919 217
74 97 119
35656 52527 340
19 25 24
10972 13255 276
2224 2463 209
13256 17647 279
626330 511935 470
2222 1161 182
13254 10971 268
106238 77031 351
410010 230631 443
230630 216367 386
24 18 21
326 313 131
72 54 113
2462 2223 183
57 64 108
2231 2457 183
2469 2916 191
142587 156155 375
3713 6162 236
34 20 112
26632 34236 285
52529 77027 335
230639 410009 441
876 1156 174
15 10 18
31 24 112
77032 106233 341
23532 26623 308
130 169 117
13263 17647 279
773885 3323 509
598 82647 351
243944 12661 443
6262 479 262
1579 2596 209
807 995066 525
711 57348 340
31269 480086 449
271 52820 340
805 167812 383
20067 40531 324
292 2249 183
400598 106753 443
683983 789303 504
254226 906626 525
752719 247156 509
904734 466278 525
773 541 171
684 798 171
401 214 144
992 407 179
624 465 142
999943 999999 259
867267 999999 507
998451 999999 396
979156 999999 440
999999 446212 525
999999 999960 259
999999 999998 259
999999 999993 259
